Descripcion de ERROR:
Version: 2.0
EQUIPO: FRANCISCO
------------------------------------------------------------------------------------------------------------------------------------------------------------------------------------
FECHA: 28/01/19 02:26:09
MENSAJE: El servidor no puede procesar la solicitud. ---> El certificado remoto no es válido según el procedimiento de validación.
SOURCE: System.Web.Services
TARGETSITE: System.Object[] ReadResponse(System.Web.Services.Protocols.SoapClientMessage, System.Net.WebResponse, System.IO.Stream, Boolean)
STACKTRACE (Ruta):    en System.Web.Services.Protocols.SoapHttpClientProtocol.ReadResponse(SoapClientMessage message, WebResponse response, Stream responseStream, Boolean asyncCall)
   en System.Web.Services.Protocols.SoapHttpClientProtocol.Invoke(String methodName, Object[] parameters)
   en web_tributaria.ws_consulta_tributaria.Service1.ObtenerDatosMunicipalidad() en C:\inetpub\wwwroot\Clientes\Tejedor\web_tributaria\web_tributaria\Web References\ws_consulta_tributaria\Reference.vb:línea 530
   en web_tributaria.webfrmconsulta_b.CargarDatosMunicipalidad() en C:\inetpub\wwwroot\Clientes\Tejedor\web_tributaria\web_tributaria\paginas\webfrmconsulta_b.aspx.vb:línea 345




Descripcion de Variables WEB:
------------------------------------------------------------------------------------------------------------------------------------------------------------------------------------ALL_HTTP: HTTP_CONNECTION:keep-alive
HTTP_ACCEPT:text/html,application/xhtml+xml,application/xml;q=0.9,image/webp,image/apng,*/*;q=0.8
HTTP_ACCEPT_ENCODING:gzip, deflate, br
HTTP_ACCEPT_LANGUAGE:es-ES,es;q=0.9,en;q=0.8
HTTP_COOKIE:style=null; ASP.NET_SessionId=v3wmnd452njz4055bofe43as
HTTP_HOST:localhost:53247
HTTP_USER_AGENT:Mozilla/5.0 (Windows NT 10.0; Win64; x64) AppleWebKit/537.36 (KHTML, like Gecko) Chrome/71.0.3578.98 Safari/537.36
HTTP_UPGRADE_INSECURE_REQUESTS:1

ALL_RAW: Connection: keep-alive
Accept: text/html,application/xhtml+xml,application/xml;q=0.9,image/webp,image/apng,*/*;q=0.8
Accept-Encoding: gzip, deflate, br
Accept-Language: es-ES,es;q=0.9,en;q=0.8
Cookie: style=null; ASP.NET_SessionId=v3wmnd452njz4055bofe43as
Host: localhost:53247
User-Agent: Mozilla/5.0 (Windows NT 10.0; Win64; x64) AppleWebKit/537.36 (KHTML, like Gecko) Chrome/71.0.3578.98 Safari/537.36
Upgrade-Insecure-Requests: 1

APPL_MD_PATH: 
APPL_PHYSICAL_PATH: C:\inetpub\wwwroot\Clientes\Tejedor\web_tributaria\web_tributaria\
AUTH_TYPE: NTLM
AUTH_USER: FRANCISCO\Francisco
AUTH_PASSWORD: 
LOGON_USER: FRANCISCO\Francisco
REMOTE_USER: FRANCISCO\Francisco
CERT_COOKIE: 
CERT_FLAGS: 
CERT_ISSUER: 
CERT_KEYSIZE: 
CERT_SECRETKEYSIZE: 
CERT_SERIALNUMBER: 
CERT_SERVER_ISSUER: 
CERT_SERVER_SUBJECT: 
CERT_SUBJECT: 
CONTENT_LENGTH: 0
CONTENT_TYPE: 
GATEWAY_INTERFACE: 
HTTPS: 
HTTPS_KEYSIZE: 
HTTPS_SECRETKEYSIZE: 
HTTPS_SERVER_ISSUER: 
HTTPS_SERVER_SUBJECT: 
INSTANCE_ID: 
INSTANCE_META_PATH: 
LOCAL_ADDR: 127.0.0.1
PATH_INFO: /paginas/webfrmconsulta_b.aspx
PATH_TRANSLATED: C:\inetpub\wwwroot\Clientes\Tejedor\web_tributaria\web_tributaria\paginas\webfrmconsulta_b.aspx
QUERY_STRING: 
REMOTE_ADDR: 127.0.0.1
REMOTE_HOST: 127.0.0.1
REMOTE_PORT: 
REQUEST_METHOD: GET
SCRIPT_NAME: /paginas/webfrmconsulta_b.aspx
SERVER_NAME: localhost
SERVER_PORT: 53247
SERVER_PORT_SECURE: 0
SERVER_PROTOCOL: HTTP/1.1
SERVER_SOFTWARE: 
URL: /paginas/webfrmconsulta_b.aspx
HTTP_CONNECTION: keep-alive
HTTP_ACCEPT: text/html,application/xhtml+xml,application/xml;q=0.9,image/webp,image/apng,*/*;q=0.8
HTTP_ACCEPT_ENCODING: gzip, deflate, br
HTTP_ACCEPT_LANGUAGE: es-ES,es;q=0.9,en;q=0.8
HTTP_COOKIE: style=null; ASP.NET_SessionId=v3wmnd452njz4055bofe43as
HTTP_HOST: localhost:53247
HTTP_USER_AGENT: Mozilla/5.0 (Windows NT 10.0; Win64; x64) AppleWebKit/537.36 (KHTML, like Gecko) Chrome/71.0.3578.98 Safari/537.36
HTTP_UPGRADE_INSECURE_REQUESTS: 1
