EQUIPO: PCJUAN
FECHA: 20/05/14 12:17:27
MENSAJE: Referencia a objeto no establecida como instancia de un objeto.
SOURCE: web_tish
TARGETSITE: Void CrearPDF()
STACKTRACE (Ruta):    en web_tish.ClsPDFComprobantePago.CrearPDF() en C:\Inetpub\wwwroot\tish\desarrollos\web_tish\web_tish\clases\clsPDFComprobantePago.vb:línea 162
   en web_tish.webfrmcomprobantepago.Page_Load(Object sender, EventArgs e) en C:\Inetpub\wwwroot\tish\desarrollos\web_tish\web_tish\paginas\comprobantes\webfrmcomprobantepago.aspx.vb:línea 131