EQUIPO: PCFRAN
FECHA: 30/06/16 12:29:25
MENSAJE: Error al crear una instancia del componente COM con CLSID {48B0571C-D75C-4559-BE24-F6AE1C8783A3} desde IClassFactory debido al siguiente error: 80004005.
SOURCE: ws_consulta_tributaria
TARGETSITE: System.String ObtenerDatosMunicipalidad()
STACKTRACE (Ruta):    en ws_consulta_tributaria.ClsConexionFOX.ObtenerDatosMunicipalidad() en C:\inetpub\wwwroot\Clientes\Canuelas\ws_consulta_tributaria\ws_consulta_tributaria\conexiones\ClsConexionFOX.vb:línea 188