FECHA: 17/11/09 03:21:39|IP: 127.0.0.1|HOST: 127.0.0.1|PUERTO: 

-- DATOS INGRESADOS --
NRO. CUENTA:        368
TIPO CUENTA:        Inmueble
GRUPO COMPROBANTE1: 55
NRO. COMPROBANTE1:  000000083
NRO. VERIFICADOR1:  23
GRUPO COMPROBANTE2: 55
NRO. COMPROBANTE2:  000147740
NRO. VERIFICADOR2:  58
