FECHA: 03/11/09 12:49:19|IP: 127.0.0.1|HOST: 127.0.0.1|PUERTO: 

-- DATOS INGRESADOS --
NRO. CUENTA:        6
TIPO CUENTA:        Inmueble
GRUPO COMPROBANTE1: 6
NRO. COMPROBANTE1:  000000006
NRO. VERIFICADOR1:  6
GRUPO COMPROBANTE2: 6
NRO. COMPROBANTE2:  000000006
NRO. VERIFICADOR2:  6
