FECHA: 16/11/09 09:33:06|IP: 127.0.0.1|HOST: 127.0.0.1|PUERTO: 

-- DATOS INGRESADOS --
NRO. CUENTA:        2
TIPO CUENTA:        Cementerio
GRUPO COMPROBANTE1: 2
NRO. COMPROBANTE1:  000000002
NRO. VERIFICADOR1:  2
GRUPO COMPROBANTE2: 2
NRO. COMPROBANTE2:  000000002
NRO. VERIFICADOR2:  2
