FECHA: 17/11/09 05:24:32|IP: 127.0.0.1|HOST: 127.0.0.1|PUERTO: 

-- DATOS INGRESADOS --
NRO. CUENTA:        368
TIPO CUENTA:        Inmueble
GRUPO COMPROBANTE1: 1
NRO. COMPROBANTE1:  000000001
NRO. VERIFICADOR1:  1
GRUPO COMPROBANTE2: 1
NRO. COMPROBANTE2:  000000001
NRO. VERIFICADOR2:  2
