FECHA: 11/12/09 02:02:17|IP: 127.0.0.1|HOST: 127.0.0.1|PUERTO: 

-- DATOS INGRESADOS --
NRO. CUENTA:        7523
TIPO CUENTA:        Inmueble
GRUPO COMPROBANTE1: 90
NRO. COMPROBANTE1:  002205780
NRO. VERIFICADOR1:  0
GRUPO COMPROBANTE2: 90
NRO. COMPROBANTE2:  002225948
NRO. VERIFICADOR2:  0
