Descripcion de ERROR:
------------------------------------------------------------------------------------------------------------------------------------------------------------------------------------
FECHA: 09/12/14 04:22:14
MENSAJE: Referencia a objeto no establecida como instancia de un objeto.
SOURCE: ws_tish_rafam
TARGETSITE: System.Data.DataSet DatosComercio()
STACKTRACE (Ruta):    en ws_tish_rafam.ClsRafam.DatosComercio() en C:\inetpub\wwwroot\Tish Nuevo\Interface_ws_tish_rafam\ws_tish_rafam\ClsRafam.vb:línea 1307
------------------------------------------------------------------------------------------------------------------------------------------------------------------------------------
