FECHA: 27/11/09 11:58:46|IP: 127.0.0.1|HOST: 127.0.0.1|PUERTO: 

-- DATOS INGRESADOS --
NRO. CUENTA:        1
TIPO CUENTA:        Inmueble
GRUPO COMPROBANTE1: -1
NRO. COMPROBANTE1:  234234242
NRO. VERIFICADOR1:  76
GRUPO COMPROBANTE2: 1
NRO. COMPROBANTE2:  000000001
NRO. VERIFICADOR2:  3
