FECHA: 11/11/09 11:03:14|IP: 127.0.0.1|HOST: 127.0.0.1|PUERTO: 

-- DATOS INGRESADOS --
NRO. CUENTA:        22222222
TIPO CUENTA:        Inmueble
GRUPO COMPROBANTE1: 55
NRO. COMPROBANTE1:  83
NRO. VERIFICADOR1:  23
GRUPO COMPROBANTE2: 55
NRO. COMPROBANTE2:  83
NRO. VERIFICADOR2:  23
