Descripcion de ERROR:
Version: 2.0
EQUIPO: FRANCISCO
------------------------------------------------------------------------------------------------------------------------------------------------------------------------------------
FECHA: 27/10/17 11:25:31
MENSAJE: La etiqueta de apertura 'RECURSOO' en la línea 15 no coincide con la etiqueta de cierre de 'RECURSO'. Línea 15, posición 15.
SOURCE: System.Xml
TARGETSITE: Void Throw(System.Exception)
STACKTRACE (Ruta):    en System.Xml.XmlTextReaderImpl.Throw(Exception e)
   en System.Xml.XmlTextReaderImpl.Throw(String res, String[] args)
   en System.Xml.XmlTextReaderImpl.ThrowTagMismatch(NodeData startTag)
   en System.Xml.XmlTextReaderImpl.ParseEndElement()
   en System.Xml.XmlTextReaderImpl.ParseElementContent()
   en System.Xml.XmlTextReaderImpl.Read()
   en System.Xml.XmlTextReader.Read()
   en System.Xml.XmlLoader.LoadNode(Boolean skipOverWhitespace)
   en System.Xml.XmlLoader.ReadCurrentNode(XmlDocument doc, XmlReader reader)
   en System.Xml.XmlDocument.ReadNode(XmlReader reader)
   en System.Data.DataSet.ReadXml(XmlReader reader, Boolean denyResolving)
   en System.Data.DataSet.ReadXml(TextReader reader)
   en web_tributaria.webfrmcomprobantepago.Page_Load(Object sender, EventArgs e) en C:\inetpub\wwwroot\Clientes\25demayo\web_tributaria\web_tributaria\paginas\comprobantes\webfrmcomprobantepago.aspx.vb:línea 45




Descripcion de Variables WEB:
------------------------------------------------------------------------------------------------------------------------------------------------------------------------------------ALL_HTTP: HTTP_CONNECTION:keep-alive
HTTP_ACCEPT:text/html,application/xhtml+xml,application/xml;q=0.9,image/webp,image/apng,*/*;q=0.8
HTTP_ACCEPT_ENCODING:gzip, deflate, br
HTTP_ACCEPT_LANGUAGE:es-ES,es;q=0.8
HTTP_COOKIE:ASP.NET_SessionId=gqn1lc55gpkklm45cb5pxkbv
HTTP_HOST:localhost:60761
HTTP_REFERER:http://localhost:60761/paginas/webfrmlistado.aspx
HTTP_USER_AGENT:Mozilla/5.0 (Windows NT 10.0; Win64; x64) AppleWebKit/537.36 (KHTML, like Gecko) Chrome/61.0.3163.100 Safari/537.36
HTTP_UPGRADE_INSECURE_REQUESTS:1

ALL_RAW: Connection: keep-alive
Accept: text/html,application/xhtml+xml,application/xml;q=0.9,image/webp,image/apng,*/*;q=0.8
Accept-Encoding: gzip, deflate, br
Accept-Language: es-ES,es;q=0.8
Cookie: ASP.NET_SessionId=gqn1lc55gpkklm45cb5pxkbv
Host: localhost:60761
Referer: http://localhost:60761/paginas/webfrmlistado.aspx
User-Agent: Mozilla/5.0 (Windows NT 10.0; Win64; x64) AppleWebKit/537.36 (KHTML, like Gecko) Chrome/61.0.3163.100 Safari/537.36
Upgrade-Insecure-Requests: 1

APPL_MD_PATH: 
APPL_PHYSICAL_PATH: C:\inetpub\wwwroot\Clientes\25demayo\web_tributaria\web_tributaria\
AUTH_TYPE: NTLM
AUTH_USER: FRANCISCO\Francisco
AUTH_PASSWORD: 
LOGON_USER: FRANCISCO\Francisco
REMOTE_USER: FRANCISCO\Francisco
CERT_COOKIE: 
CERT_FLAGS: 
CERT_ISSUER: 
CERT_KEYSIZE: 
CERT_SECRETKEYSIZE: 
CERT_SERIALNUMBER: 
CERT_SERVER_ISSUER: 
CERT_SERVER_SUBJECT: 
CERT_SUBJECT: 
CONTENT_LENGTH: 0
CONTENT_TYPE: 
GATEWAY_INTERFACE: 
HTTPS: 
HTTPS_KEYSIZE: 
HTTPS_SECRETKEYSIZE: 
HTTPS_SERVER_ISSUER: 
HTTPS_SERVER_SUBJECT: 
INSTANCE_ID: 
INSTANCE_META_PATH: 
LOCAL_ADDR: 127.0.0.1
PATH_INFO: /paginas/comprobantes/webfrmcomprobantepago.aspx
PATH_TRANSLATED: C:\inetpub\wwwroot\Clientes\25demayo\web_tributaria\web_tributaria\paginas\comprobantes\webfrmcomprobantepago.aspx
QUERY_STRING: 
REMOTE_ADDR: 127.0.0.1
REMOTE_HOST: 127.0.0.1
REMOTE_PORT: 
REQUEST_METHOD: GET
SCRIPT_NAME: /paginas/comprobantes/webfrmcomprobantepago.aspx
SERVER_NAME: localhost
SERVER_PORT: 60761
SERVER_PORT_SECURE: 0
SERVER_PROTOCOL: HTTP/1.1
SERVER_SOFTWARE: 
URL: /paginas/comprobantes/webfrmcomprobantepago.aspx
HTTP_CONNECTION: keep-alive
HTTP_ACCEPT: text/html,application/xhtml+xml,application/xml;q=0.9,image/webp,image/apng,*/*;q=0.8
HTTP_ACCEPT_ENCODING: gzip, deflate, br
HTTP_ACCEPT_LANGUAGE: es-ES,es;q=0.8
HTTP_COOKIE: ASP.NET_SessionId=gqn1lc55gpkklm45cb5pxkbv
HTTP_HOST: localhost:60761
HTTP_REFERER: http://localhost:60761/paginas/webfrmlistado.aspx
HTTP_USER_AGENT: Mozilla/5.0 (Windows NT 10.0; Win64; x64) AppleWebKit/537.36 (KHTML, like Gecko) Chrome/61.0.3163.100 Safari/537.36
HTTP_UPGRADE_INSECURE_REQUESTS: 1
