EQUIPO: PCFRAN
FECHA: 27/12/16 12:29:01
MENSAJE: _getvisitascantidad c:\inetpub\wwwroot\clientes\castelli\ws_consulta_tributaria\ws_consulta_tributaria\bin\_getvisitascantidad.prg Error en la línea 7 No se encuentra el alias 'WEB_VIS'. 13
SOURCE: ws.recurweb gmdq.ws
TARGETSITE: System.String getVisitasCantidad()
STACKTRACE (Ruta):    en sico.recurwebClass.getVisitasCantidad()
   en ws_consulta_tributaria.ClsConexionFOX.getVisitasCantidad() en C:\inetpub\wwwroot\Clientes\Castelli\ws_consulta_tributaria\ws_consulta_tributaria\conexiones\ClsConexionFOX.vb:línea 384