Descripcion de ERROR:
Version: 2.0
EQUIPO: FRANCISCO
------------------------------------------------------------------------------------------------------------------------------------------------------------------------------------
FECHA: 07/05/18 04:36:32
MENSAJE: Referencia a objeto no establecida como instancia de un objeto.
SOURCE: web_tributaria
TARGETSITE: Void link_consultar_deuda_Click(System.Object, System.EventArgs)
STACKTRACE (Ruta):    en web_tributaria.webfrmconsulta_b.link_consultar_deuda_Click(Object sender, EventArgs e) en C:\inetpub\wwwroot\Clientes\Lavalle\web_tributaria\web_tributaria\paginas\webfrmconsulta_b.aspx.vb:línea 118




Descripcion de Variables WEB:
------------------------------------------------------------------------------------------------------------------------------------------------------------------------------------ALL_HTTP: HTTP_CACHE_CONTROL:no-cache
HTTP_CONNECTION:keep-alive
HTTP_CONTENT_LENGTH:1272
HTTP_CONTENT_TYPE:application/x-www-form-urlencoded; charset=UTF-8
HTTP_ACCEPT:*/*
HTTP_ACCEPT_ENCODING:gzip, deflate, br
HTTP_ACCEPT_LANGUAGE:es-ES,es;q=0.9
HTTP_COOKIE:ASP.NET_SessionId=mi2pmxmaw0gzt145wojppv3p
HTTP_HOST:localhost:2662
HTTP_REFERER:http://localhost:2662/paginas/webfrmconsulta_b.aspx
HTTP_USER_AGENT:Mozilla/5.0 (Windows NT 10.0; Win64; x64) AppleWebKit/537.36 (KHTML, like Gecko) Chrome/66.0.3359.139 Safari/537.36
HTTP_ORIGIN:http://localhost:2662
HTTP_X_MICROSOFTAJAX:Delta=true

ALL_RAW: Cache-Control: no-cache
Connection: keep-alive
Content-Length: 1272
Content-Type: application/x-www-form-urlencoded; charset=UTF-8
Accept: */*
Accept-Encoding: gzip, deflate, br
Accept-Language: es-ES,es;q=0.9
Cookie: ASP.NET_SessionId=mi2pmxmaw0gzt145wojppv3p
Host: localhost:2662
Referer: http://localhost:2662/paginas/webfrmconsulta_b.aspx
User-Agent: Mozilla/5.0 (Windows NT 10.0; Win64; x64) AppleWebKit/537.36 (KHTML, like Gecko) Chrome/66.0.3359.139 Safari/537.36
Origin: http://localhost:2662
X-MicrosoftAjax: Delta=true

APPL_MD_PATH: 
APPL_PHYSICAL_PATH: C:\inetpub\wwwroot\Clientes\Lavalle\web_tributaria\web_tributaria\
AUTH_TYPE: NTLM
AUTH_USER: FRANCISCO\Francisco
AUTH_PASSWORD: 
LOGON_USER: FRANCISCO\Francisco
REMOTE_USER: FRANCISCO\Francisco
CERT_COOKIE: 
CERT_FLAGS: 
CERT_ISSUER: 
CERT_KEYSIZE: 
CERT_SECRETKEYSIZE: 
CERT_SERIALNUMBER: 
CERT_SERVER_ISSUER: 
CERT_SERVER_SUBJECT: 
CERT_SUBJECT: 
CONTENT_LENGTH: 1272
CONTENT_TYPE: application/x-www-form-urlencoded; charset=UTF-8
GATEWAY_INTERFACE: 
HTTPS: 
HTTPS_KEYSIZE: 
HTTPS_SECRETKEYSIZE: 
HTTPS_SERVER_ISSUER: 
HTTPS_SERVER_SUBJECT: 
INSTANCE_ID: 
INSTANCE_META_PATH: 
LOCAL_ADDR: 127.0.0.1
PATH_INFO: /paginas/webfrmconsulta_b.aspx
PATH_TRANSLATED: C:\inetpub\wwwroot\Clientes\Lavalle\web_tributaria\web_tributaria\paginas\webfrmconsulta_b.aspx
QUERY_STRING: 
REMOTE_ADDR: 127.0.0.1
REMOTE_HOST: 127.0.0.1
REMOTE_PORT: 
REQUEST_METHOD: POST
SCRIPT_NAME: /paginas/webfrmconsulta_b.aspx
SERVER_NAME: localhost
SERVER_PORT: 2662
SERVER_PORT_SECURE: 0
SERVER_PROTOCOL: HTTP/1.1
SERVER_SOFTWARE: 
URL: /paginas/webfrmconsulta_b.aspx
HTTP_CACHE_CONTROL: no-cache
HTTP_CONNECTION: keep-alive
HTTP_CONTENT_LENGTH: 1272
HTTP_CONTENT_TYPE: application/x-www-form-urlencoded; charset=UTF-8
HTTP_ACCEPT: */*
HTTP_ACCEPT_ENCODING: gzip, deflate, br
HTTP_ACCEPT_LANGUAGE: es-ES,es;q=0.9
HTTP_COOKIE: ASP.NET_SessionId=mi2pmxmaw0gzt145wojppv3p
HTTP_HOST: localhost:2662
HTTP_REFERER: http://localhost:2662/paginas/webfrmconsulta_b.aspx
HTTP_USER_AGENT: Mozilla/5.0 (Windows NT 10.0; Win64; x64) AppleWebKit/537.36 (KHTML, like Gecko) Chrome/66.0.3359.139 Safari/537.36
HTTP_ORIGIN: http://localhost:2662
HTTP_X_MICROSOFTAJAX: Delta=true
