Descripcion de ERROR:
Version: 2.0
EQUIPO: PCFRAN
------------------------------------------------------------------------------------------------------------------------------------------------------------------------------------
FECHA: 04/11/16 11:08:52
MENSAJE: Error genérico en GDI+.
SOURCE: System.Drawing
TARGETSITE: Void Save(System.String, System.Drawing.Imaging.ImageCodecInfo, System.Drawing.Imaging.EncoderParameters)
STACKTRACE (Ruta):    en System.Drawing.Image.Save(String filename, ImageCodecInfo encoder, EncoderParameters encoderParams)
   en System.Drawing.Image.Save(String filename, ImageFormat format)
   en System.Drawing.Image.Save(String filename)
   en web_tributaria.webfrmcomprobantepago.GenerarLogo() en C:\inetpub\wwwroot\9 de julio\web_tributaria\web_tributaria\paginas\comprobantes\webfrmcomprobantepago.aspx.vb:línea 231




Descripcion de Variables WEB:
------------------------------------------------------------------------------------------------------------------------------------------------------------------------------------ALL_HTTP: HTTP_CONNECTION:keep-alive
HTTP_ACCEPT:text/html,application/xhtml+xml,application/xml;q=0.9,image/webp,*/*;q=0.8
HTTP_ACCEPT_ENCODING:gzip, deflate, sdch, br
HTTP_ACCEPT_LANGUAGE:es-ES,es;q=0.8
HTTP_COOKIE:__utma=111872281.1877353027.1454094304.1454683805.1454683805.1; _ga=GA1.1.1877353027.1454094304; ASP.NET_SessionId=0hmxgi35q5yj2m55x20vnz2r
HTTP_HOST:localhost:2662
HTTP_REFERER:http://localhost:2662/paginas/webfrmlistado.aspx
HTTP_USER_AGENT:Mozilla/5.0 (Windows NT 6.2) AppleWebKit/537.36 (KHTML, like Gecko) Chrome/54.0.2840.71 Safari/537.36
HTTP_UPGRADE_INSECURE_REQUESTS:1

ALL_RAW: Connection: keep-alive
Accept: text/html,application/xhtml+xml,application/xml;q=0.9,image/webp,*/*;q=0.8
Accept-Encoding: gzip, deflate, sdch, br
Accept-Language: es-ES,es;q=0.8
Cookie: __utma=111872281.1877353027.1454094304.1454683805.1454683805.1; _ga=GA1.1.1877353027.1454094304; ASP.NET_SessionId=0hmxgi35q5yj2m55x20vnz2r
Host: localhost:2662
Referer: http://localhost:2662/paginas/webfrmlistado.aspx
User-Agent: Mozilla/5.0 (Windows NT 6.2) AppleWebKit/537.36 (KHTML, like Gecko) Chrome/54.0.2840.71 Safari/537.36
Upgrade-Insecure-Requests: 1

APPL_MD_PATH: 
APPL_PHYSICAL_PATH: C:\inetpub\wwwroot\Clientes\9dejulio\web_tributaria\web_tributaria\
AUTH_TYPE: NTLM
AUTH_USER: pcfran\Fran
AUTH_PASSWORD: 
LOGON_USER: pcfran\Fran
REMOTE_USER: pcfran\Fran
CERT_COOKIE: 
CERT_FLAGS: 
CERT_ISSUER: 
CERT_KEYSIZE: 
CERT_SECRETKEYSIZE: 
CERT_SERIALNUMBER: 
CERT_SERVER_ISSUER: 
CERT_SERVER_SUBJECT: 
CERT_SUBJECT: 
CONTENT_LENGTH: 0
CONTENT_TYPE: 
GATEWAY_INTERFACE: 
HTTPS: 
HTTPS_KEYSIZE: 
HTTPS_SECRETKEYSIZE: 
HTTPS_SERVER_ISSUER: 
HTTPS_SERVER_SUBJECT: 
INSTANCE_ID: 
INSTANCE_META_PATH: 
LOCAL_ADDR: 127.0.0.1
PATH_INFO: /paginas/comprobantes/webfrmcomprobantepago.aspx
PATH_TRANSLATED: C:\inetpub\wwwroot\Clientes\9dejulio\web_tributaria\web_tributaria\paginas\comprobantes\webfrmcomprobantepago.aspx
QUERY_STRING: 
REMOTE_ADDR: 127.0.0.1
REMOTE_HOST: 127.0.0.1
REMOTE_PORT: 
REQUEST_METHOD: GET
SCRIPT_NAME: /paginas/comprobantes/webfrmcomprobantepago.aspx
SERVER_NAME: localhost
SERVER_PORT: 2662
SERVER_PORT_SECURE: 0
SERVER_PROTOCOL: HTTP/1.1
SERVER_SOFTWARE: 
URL: /paginas/comprobantes/webfrmcomprobantepago.aspx
HTTP_CONNECTION: keep-alive
HTTP_ACCEPT: text/html,application/xhtml+xml,application/xml;q=0.9,image/webp,*/*;q=0.8
HTTP_ACCEPT_ENCODING: gzip, deflate, sdch, br
HTTP_ACCEPT_LANGUAGE: es-ES,es;q=0.8
HTTP_COOKIE: __utma=111872281.1877353027.1454094304.1454683805.1454683805.1; _ga=GA1.1.1877353027.1454094304; ASP.NET_SessionId=0hmxgi35q5yj2m55x20vnz2r
HTTP_HOST: localhost:2662
HTTP_REFERER: http://localhost:2662/paginas/webfrmlistado.aspx
HTTP_USER_AGENT: Mozilla/5.0 (Windows NT 6.2) AppleWebKit/537.36 (KHTML, like Gecko) Chrome/54.0.2840.71 Safari/537.36
HTTP_UPGRADE_INSECURE_REQUESTS: 1
