Descripcion de ERROR:
Version: 2.0
EQUIPO: FRANCISCO
------------------------------------------------------------------------------------------------------------------------------------------------------------------------------------
FECHA: 08/08/17 01:57:09
MENSAJE: No se encontró ningún campo o propiedad 'Importe_Multas' en el origen de datos seleccionado.
SOURCE: System.Web
TARGETSITE: System.Object GetValue(System.Web.UI.Control)
STACKTRACE (Ruta):    en System.Web.UI.WebControls.BoundField.GetValue(Control controlContainer)
   en System.Web.UI.WebControls.BoundField.OnDataBindField(Object sender, EventArgs e)
   en System.Web.UI.Control.OnDataBinding(EventArgs e)
   en System.Web.UI.Control.DataBind(Boolean raiseOnDataBinding)
   en System.Web.UI.Control.DataBind()
   en System.Web.UI.Control.DataBindChildren()
   en System.Web.UI.Control.DataBind(Boolean raiseOnDataBinding)
   en System.Web.UI.Control.DataBind()
   en System.Web.UI.WebControls.GridView.CreateRow(Int32 rowIndex, Int32 dataSourceIndex, DataControlRowType rowType, DataControlRowState rowState, Boolean dataBind, Object dataItem, DataControlField[] fields, TableRowCollection rows, PagedDataSource pagedDataSource)
   en System.Web.UI.WebControls.GridView.CreateChildControls(IEnumerable dataSource, Boolean dataBinding)
   en System.Web.UI.WebControls.CompositeDataBoundControl.PerformDataBinding(IEnumerable data)
   en System.Web.UI.WebControls.GridView.PerformDataBinding(IEnumerable data)
   en System.Web.UI.WebControls.DataBoundControl.OnDataSourceViewSelectCallback(IEnumerable data)
   en System.Web.UI.DataSourceView.Select(DataSourceSelectArguments arguments, DataSourceViewSelectCallback callback)
   en System.Web.UI.WebControls.DataBoundControl.PerformSelect()
   en System.Web.UI.WebControls.BaseDataBoundControl.DataBind()
   en System.Web.UI.WebControls.GridView.DataBind()
   en web_tributaria.webfrmlistado.Page_Load(Object sender, EventArgs e) en C:\inetpub\wwwroot\Clientes\Brandsen\web_tributaria\web_tributaria\paginas\webfrmlistado.aspx.vb:línea 149




Descripcion de Variables WEB:
------------------------------------------------------------------------------------------------------------------------------------------------------------------------------------ALL_HTTP: HTTP_CACHE_CONTROL:max-age=0
HTTP_CONNECTION:keep-alive
HTTP_ACCEPT:text/html,application/xhtml+xml,application/xml;q=0.9,image/webp,image/apng,*/*;q=0.8
HTTP_ACCEPT_ENCODING:gzip, deflate, br
HTTP_ACCEPT_LANGUAGE:es-ES,es;q=0.8
HTTP_COOKIE:ASP.NET_SessionId=cq0sjw45bajpmr45uzinsx45
HTTP_HOST:localhost:53247
HTTP_REFERER:http://localhost:53247/paginas/webfrmconsulta_b.aspx
HTTP_USER_AGENT:Mozilla/5.0 (Windows NT 10.0; Win64; x64) AppleWebKit/537.36 (KHTML, like Gecko) Chrome/60.0.3112.90 Safari/537.36
HTTP_UPGRADE_INSECURE_REQUESTS:1

ALL_RAW: Cache-Control: max-age=0
Connection: keep-alive
Accept: text/html,application/xhtml+xml,application/xml;q=0.9,image/webp,image/apng,*/*;q=0.8
Accept-Encoding: gzip, deflate, br
Accept-Language: es-ES,es;q=0.8
Cookie: ASP.NET_SessionId=cq0sjw45bajpmr45uzinsx45
Host: localhost:53247
Referer: http://localhost:53247/paginas/webfrmconsulta_b.aspx
User-Agent: Mozilla/5.0 (Windows NT 10.0; Win64; x64) AppleWebKit/537.36 (KHTML, like Gecko) Chrome/60.0.3112.90 Safari/537.36
Upgrade-Insecure-Requests: 1

APPL_MD_PATH: 
APPL_PHYSICAL_PATH: C:\inetpub\wwwroot\Clientes\Brandsen\web_tributaria\web_tributaria\
AUTH_TYPE: NTLM
AUTH_USER: FRANCISCO\Francisco
AUTH_PASSWORD: 
LOGON_USER: FRANCISCO\Francisco
REMOTE_USER: FRANCISCO\Francisco
CERT_COOKIE: 
CERT_FLAGS: 
CERT_ISSUER: 
CERT_KEYSIZE: 
CERT_SECRETKEYSIZE: 
CERT_SERIALNUMBER: 
CERT_SERVER_ISSUER: 
CERT_SERVER_SUBJECT: 
CERT_SUBJECT: 
CONTENT_LENGTH: 0
CONTENT_TYPE: 
GATEWAY_INTERFACE: 
HTTPS: 
HTTPS_KEYSIZE: 
HTTPS_SECRETKEYSIZE: 
HTTPS_SERVER_ISSUER: 
HTTPS_SERVER_SUBJECT: 
INSTANCE_ID: 
INSTANCE_META_PATH: 
LOCAL_ADDR: 127.0.0.1
PATH_INFO: /paginas/webfrmlistado.aspx
PATH_TRANSLATED: C:\inetpub\wwwroot\Clientes\Brandsen\web_tributaria\web_tributaria\paginas\webfrmlistado.aspx
QUERY_STRING: 
REMOTE_ADDR: 127.0.0.1
REMOTE_HOST: 127.0.0.1
REMOTE_PORT: 
REQUEST_METHOD: GET
SCRIPT_NAME: /paginas/webfrmlistado.aspx
SERVER_NAME: localhost
SERVER_PORT: 53247
SERVER_PORT_SECURE: 0
SERVER_PROTOCOL: HTTP/1.1
SERVER_SOFTWARE: 
URL: /paginas/webfrmlistado.aspx
HTTP_CACHE_CONTROL: max-age=0
HTTP_CONNECTION: keep-alive
HTTP_ACCEPT: text/html,application/xhtml+xml,application/xml;q=0.9,image/webp,image/apng,*/*;q=0.8
HTTP_ACCEPT_ENCODING: gzip, deflate, br
HTTP_ACCEPT_LANGUAGE: es-ES,es;q=0.8
HTTP_COOKIE: ASP.NET_SessionId=cq0sjw45bajpmr45uzinsx45
HTTP_HOST: localhost:53247
HTTP_REFERER: http://localhost:53247/paginas/webfrmconsulta_b.aspx
HTTP_USER_AGENT: Mozilla/5.0 (Windows NT 10.0; Win64; x64) AppleWebKit/537.36 (KHTML, like Gecko) Chrome/60.0.3112.90 Safari/537.36
HTTP_UPGRADE_INSECURE_REQUESTS: 1
