Descripcion de ERROR:
Version: 2.0
EQUIPO: FRANCISCO
------------------------------------------------------------------------------------------------------------------------------------------------------------------------------------
FECHA: 07/08/17 03:58:41
MENSAJE: Referencia a objeto no establecida como instancia de un objeto.
SOURCE: web_tributaria
TARGETSITE: Void CrearPDF()
STACKTRACE (Ruta):    en web_tributaria.ClsCrearComprobantePDF.CrearPDF() en C:\inetpub\wwwroot\Clientes\Brandsen\web_tributaria\web_tributaria\clases\ClsCrearComprobantePDF.vb:línea 151
   en web_tributaria.webfrmcomprobantepago.Page_Load(Object sender, EventArgs e) en C:\inetpub\wwwroot\Clientes\Brandsen\web_tributaria\web_tributaria\paginas\comprobantes\webfrmcomprobantepago.aspx.vb:línea 95




Descripcion de Variables WEB:
------------------------------------------------------------------------------------------------------------------------------------------------------------------------------------ALL_HTTP: HTTP_CONNECTION:keep-alive
HTTP_ACCEPT:text/html,application/xhtml+xml,application/xml;q=0.9,image/webp,image/apng,*/*;q=0.8
HTTP_ACCEPT_ENCODING:gzip, deflate, br
HTTP_ACCEPT_LANGUAGE:es-ES,es;q=0.8
HTTP_COOKIE:ASP.NET_SessionId=bmtg112wzoa0gwecvq2kjhyl
HTTP_HOST:localhost:53247
HTTP_REFERER:http://localhost:53247/paginas/webfrmlistado.aspx
HTTP_USER_AGENT:Mozilla/5.0 (Windows NT 10.0; Win64; x64) AppleWebKit/537.36 (KHTML, like Gecko) Chrome/59.0.3071.115 Safari/537.36
HTTP_UPGRADE_INSECURE_REQUESTS:1

ALL_RAW: Connection: keep-alive
Accept: text/html,application/xhtml+xml,application/xml;q=0.9,image/webp,image/apng,*/*;q=0.8
Accept-Encoding: gzip, deflate, br
Accept-Language: es-ES,es;q=0.8
Cookie: ASP.NET_SessionId=bmtg112wzoa0gwecvq2kjhyl
Host: localhost:53247
Referer: http://localhost:53247/paginas/webfrmlistado.aspx
User-Agent: Mozilla/5.0 (Windows NT 10.0; Win64; x64) AppleWebKit/537.36 (KHTML, like Gecko) Chrome/59.0.3071.115 Safari/537.36
Upgrade-Insecure-Requests: 1

APPL_MD_PATH: 
APPL_PHYSICAL_PATH: C:\inetpub\wwwroot\Clientes\Brandsen\web_tributaria\web_tributaria\
AUTH_TYPE: NTLM
AUTH_USER: FRANCISCO\Francisco
AUTH_PASSWORD: 
LOGON_USER: FRANCISCO\Francisco
REMOTE_USER: FRANCISCO\Francisco
CERT_COOKIE: 
CERT_FLAGS: 
CERT_ISSUER: 
CERT_KEYSIZE: 
CERT_SECRETKEYSIZE: 
CERT_SERIALNUMBER: 
CERT_SERVER_ISSUER: 
CERT_SERVER_SUBJECT: 
CERT_SUBJECT: 
CONTENT_LENGTH: 0
CONTENT_TYPE: 
GATEWAY_INTERFACE: 
HTTPS: 
HTTPS_KEYSIZE: 
HTTPS_SECRETKEYSIZE: 
HTTPS_SERVER_ISSUER: 
HTTPS_SERVER_SUBJECT: 
INSTANCE_ID: 
INSTANCE_META_PATH: 
LOCAL_ADDR: 127.0.0.1
PATH_INFO: /paginas/comprobantes/webfrmcomprobantepago.aspx
PATH_TRANSLATED: C:\inetpub\wwwroot\Clientes\Brandsen\web_tributaria\web_tributaria\paginas\comprobantes\webfrmcomprobantepago.aspx
QUERY_STRING: 
REMOTE_ADDR: 127.0.0.1
REMOTE_HOST: 127.0.0.1
REMOTE_PORT: 
REQUEST_METHOD: GET
SCRIPT_NAME: /paginas/comprobantes/webfrmcomprobantepago.aspx
SERVER_NAME: localhost
SERVER_PORT: 53247
SERVER_PORT_SECURE: 0
SERVER_PROTOCOL: HTTP/1.1
SERVER_SOFTWARE: 
URL: /paginas/comprobantes/webfrmcomprobantepago.aspx
HTTP_CONNECTION: keep-alive
HTTP_ACCEPT: text/html,application/xhtml+xml,application/xml;q=0.9,image/webp,image/apng,*/*;q=0.8
HTTP_ACCEPT_ENCODING: gzip, deflate, br
HTTP_ACCEPT_LANGUAGE: es-ES,es;q=0.8
HTTP_COOKIE: ASP.NET_SessionId=bmtg112wzoa0gwecvq2kjhyl
HTTP_HOST: localhost:53247
HTTP_REFERER: http://localhost:53247/paginas/webfrmlistado.aspx
HTTP_USER_AGENT: Mozilla/5.0 (Windows NT 10.0; Win64; x64) AppleWebKit/537.36 (KHTML, like Gecko) Chrome/59.0.3071.115 Safari/537.36
HTTP_UPGRADE_INSECURE_REQUESTS: 1
