FECHA: 17/11/09 02:05:16|IP: 127.0.0.1|HOST: 127.0.0.1|PUERTO: 

-- DATOS INGRESADOS --
NRO. CUENTA:        368
TIPO CUENTA:        Inmueble
GRUPO COMPROBANTE1: 0
NRO. COMPROBANTE1:  000000000
NRO. VERIFICADOR1:  0
GRUPO COMPROBANTE2: 1
NRO. COMPROBANTE2:  000000001
NRO. VERIFICADOR2:  23
