FECHA: 10/11/09 03:38:33|IP: 127.0.0.1|HOST: 127.0.0.1|PUERTO: 

-- DATOS INGRESADOS --
NRO. CUENTA:        368
TIPO CUENTA:        Comercio
GRUPO COMPROBANTE1: 55
NRO. COMPROBANTE1:  83
NRO. VERIFICADOR1:  23
GRUPO COMPROBANTE2: 55
NRO. COMPROBANTE2:  83
NRO. VERIFICADOR2:  23
