FECHA: 27/11/09 11:59:08|IP: 127.0.0.1|HOST: 127.0.0.1|PUERTO: 

-- DATOS INGRESADOS --
NRO. CUENTA:        1
TIPO CUENTA:        Inmueble
GRUPO COMPROBANTE1: 1
NRO. COMPROBANTE1:  000000001
NRO. VERIFICADOR1:  3
GRUPO COMPROBANTE2: 1
NRO. COMPROBANTE2:  000000001
NRO. VERIFICADOR2:  4
