Descripcion de ERROR:
------------------------------------------------------------------------------------------------------------------------------------------------------------------------------------
FECHA: 19/12/16 11:53:35
MENSAJE: ORA-06550: línea 1, columna 32:
PLS-00201: el identificador 'GMDQWEB_TRIBUTARIO_PKG.OBTENER_NOMBRE_CONTRIBUYENTE' se debe declarar
ORA-06550: línea 1, columna 7:
PL/SQL: Statement ignored

SOURCE: System.Data.OracleClient
TARGETSITE: Void CheckError(System.Data.OracleClient.OciErrorHandle, Int32)
STACKTRACE (Ruta):    en System.Data.OracleClient.OracleConnection.CheckError(OciErrorHandle errorHandle, Int32 rc)
   en System.Data.OracleClient.OracleCommand.Execute(OciStatementHandle statementHandle, CommandBehavior behavior, Boolean needRowid, OciRowidDescriptor& rowidDescriptor, ArrayList& resultParameterOrdinals)
   en System.Data.OracleClient.OracleCommand.ExecuteNonQueryInternal(Boolean needRowid, OciRowidDescriptor& rowidDescriptor)
   en System.Data.OracleClient.OracleCommand.ExecuteNonQuery()
   en ws_tributario_rafam.ClsRafam.ObtenerNombreContribuyente(String mTipoCuenta, Int64 mNroCuenta) en C:\inetpub\wwwroot\Sistematributario1.2\Interface_ws_Rafam\ws_tributario_rafam\ClsRafam.vb:línea 335
------------------------------------------------------------------------------------------------------------------------------------------------------------------------------------
