Descripcion de ERROR:
------------------------------------------------------------------------------------------------------------------------------------------------------------------------------------
FECHA: 13/07/17 04:04:36
MENSAJE: ORA-12545: La conexión ha fallado porque el host destino o el objeto no existen

SOURCE: System.Data.OracleClient
TARGETSITE: Void Check(System.Data.OracleClient.OciErrorHandle, Int32)
STACKTRACE (Ruta):    en System.Data.ProviderBase.DbConnectionPool.GetConnection(DbConnection owningObject)
   en System.Data.ProviderBase.DbConnectionFactory.GetConnection(DbConnection owningConnection)
   en System.Data.ProviderBase.DbConnectionClosed.OpenConnection(DbConnection outerConnection, DbConnectionFactory connectionFactory)
   en System.Data.OracleClient.OracleConnection.Open()
   en ws_tributario_rafam.ClsRafam.ObtenerNombreContribuyente(String mTipoCuenta, Int64 mNroCuenta) en C:\inetpub\wwwroot\Sistematributario1.2\Interface_ws_Rafam\ws_tributario_rafam\ClsRafam.vb:línea 314
------------------------------------------------------------------------------------------------------------------------------------------------------------------------------------
