FECHA: 11/11/09 10:50:44|IP: 127.0.0.1|HOST: 127.0.0.1|PUERTO: 

-- DATOS INGRESADOS --
NRO. CUENTA:        12
TIPO CUENTA:        Inmueble
GRUPO COMPROBANTE1: 1
NRO. COMPROBANTE1:  000000000
NRO. VERIFICADOR1:  1
GRUPO COMPROBANTE2: 1
NRO. COMPROBANTE2:  000000000
NRO. VERIFICADOR2:  1
