Descripcion de ERROR:
Version: 2.0
EQUIPO: PCFRAN
------------------------------------------------------------------------------------------------------------------------------------------------------------------------------------
FECHA: 15/09/15 08:53:27
MENSAJE: La columna 'DPC_USA_CHECK' no pertenece a la tabla REGISTRO_DETALLEPROXCOMPAVENC.
SOURCE: System.Data
TARGETSITE: System.Data.DataColumn GetDataColumn(System.String)
STACKTRACE (Ruta):    en System.Data.DataRow.GetDataColumn(String columnName)
   en System.Data.DataRow.get_Item(String columnName)
   en web_tributaria.webfrmlistado.CargarGrillaNoVencidos(DataTable dtDatos) en C:\inetpub\wwwroot\sistematributario1.2\web_tributaria\web_tributaria\paginas\webfrmlistado.aspx.vb:línea 403




Descripcion de Variables WEB:
------------------------------------------------------------------------------------------------------------------------------------------------------------------------------------ALL_HTTP: HTTP_CONNECTION:keep-alive
HTTP_ACCEPT:text/html,application/xhtml+xml,application/xml;q=0.9,image/webp,*/*;q=0.8
HTTP_ACCEPT_ENCODING:gzip, deflate, sdch
HTTP_ACCEPT_LANGUAGE:es-ES,es;q=0.8
HTTP_COOKIE:ASP.NET_SessionId=t3kupj2yhecx4255rloa33v5
HTTP_HOST:localhost:2662
HTTP_REFERER:http://localhost:2662/paginas/webfrmconsulta_b.aspx
HTTP_USER_AGENT:Mozilla/5.0 (Windows NT 6.2) AppleWebKit/537.36 (KHTML, like Gecko) Chrome/45.0.2454.85 Safari/537.36
HTTP_UPGRADE_INSECURE_REQUESTS:1

ALL_RAW: Connection: keep-alive
Accept: text/html,application/xhtml+xml,application/xml;q=0.9,image/webp,*/*;q=0.8
Accept-Encoding: gzip, deflate, sdch
Accept-Language: es-ES,es;q=0.8
Cookie: ASP.NET_SessionId=t3kupj2yhecx4255rloa33v5
Host: localhost:2662
Referer: http://localhost:2662/paginas/webfrmconsulta_b.aspx
User-Agent: Mozilla/5.0 (Windows NT 6.2) AppleWebKit/537.36 (KHTML, like Gecko) Chrome/45.0.2454.85 Safari/537.36
Upgrade-Insecure-Requests: 1

APPL_MD_PATH: 
APPL_PHYSICAL_PATH: C:\inetpub\wwwroot\sistematributario1.2\web_tributaria\web_tributaria\
AUTH_TYPE: NTLM
AUTH_USER: pcfran\Fran
AUTH_PASSWORD: 
LOGON_USER: pcfran\Fran
REMOTE_USER: pcfran\Fran
CERT_COOKIE: 
CERT_FLAGS: 
CERT_ISSUER: 
CERT_KEYSIZE: 
CERT_SECRETKEYSIZE: 
CERT_SERIALNUMBER: 
CERT_SERVER_ISSUER: 
CERT_SERVER_SUBJECT: 
CERT_SUBJECT: 
CONTENT_LENGTH: 0
CONTENT_TYPE: 
GATEWAY_INTERFACE: 
HTTPS: 
HTTPS_KEYSIZE: 
HTTPS_SECRETKEYSIZE: 
HTTPS_SERVER_ISSUER: 
HTTPS_SERVER_SUBJECT: 
INSTANCE_ID: 
INSTANCE_META_PATH: 
LOCAL_ADDR: 127.0.0.1
PATH_INFO: /paginas/webfrmlistado.aspx
PATH_TRANSLATED: C:\inetpub\wwwroot\sistematributario1.2\web_tributaria\web_tributaria\paginas\webfrmlistado.aspx
QUERY_STRING: 
REMOTE_ADDR: 127.0.0.1
REMOTE_HOST: 127.0.0.1
REMOTE_PORT: 
REQUEST_METHOD: GET
SCRIPT_NAME: /paginas/webfrmlistado.aspx
SERVER_NAME: localhost
SERVER_PORT: 2662
SERVER_PORT_SECURE: 0
SERVER_PROTOCOL: HTTP/1.1
SERVER_SOFTWARE: 
URL: /paginas/webfrmlistado.aspx
HTTP_CONNECTION: keep-alive
HTTP_ACCEPT: text/html,application/xhtml+xml,application/xml;q=0.9,image/webp,*/*;q=0.8
HTTP_ACCEPT_ENCODING: gzip, deflate, sdch
HTTP_ACCEPT_LANGUAGE: es-ES,es;q=0.8
HTTP_COOKIE: ASP.NET_SessionId=t3kupj2yhecx4255rloa33v5
HTTP_HOST: localhost:2662
HTTP_REFERER: http://localhost:2662/paginas/webfrmconsulta_b.aspx
HTTP_USER_AGENT: Mozilla/5.0 (Windows NT 6.2) AppleWebKit/537.36 (KHTML, like Gecko) Chrome/45.0.2454.85 Safari/537.36
HTTP_UPGRADE_INSECURE_REQUESTS: 1
