Descripcion de ERROR:
Version: 2.0
EQUIPO: PCFRAN
------------------------------------------------------------------------------------------------------------------------------------------------------------------------------------
FECHA: 22/09/15 09:50:37
MENSAJE: Referencia a objeto no establecida como instancia de un objeto.
SOURCE: web_tributaria
TARGETSITE: Void CargarDatosMunicipalidad()
STACKTRACE (Ruta):    en web_tributaria.webfrmconsulta_b.CargarDatosMunicipalidad() en C:\inetpub\wwwroot\sistematributario1.2\web_tributaria\web_tributaria\paginas\webfrmconsulta_b.aspx.vb:línea 352




Descripcion de Variables WEB:
------------------------------------------------------------------------------------------------------------------------------------------------------------------------------------ALL_HTTP: HTTP_CACHE_CONTROL:max-age=0
HTTP_CONNECTION:keep-alive
HTTP_ACCEPT:text/html,application/xhtml+xml,application/xml;q=0.9,image/webp,*/*;q=0.8
HTTP_ACCEPT_ENCODING:gzip, deflate, sdch
HTTP_ACCEPT_LANGUAGE:es-ES,es;q=0.8
HTTP_COOKIE:ASP.NET_SessionId=gk0xxm552oxj0xm5k43ahg3z
HTTP_HOST:localhost:2662
HTTP_USER_AGENT:Mozilla/5.0 (Windows NT 6.2) AppleWebKit/537.36 (KHTML, like Gecko) Chrome/45.0.2454.93 Safari/537.36
HTTP_UPGRADE_INSECURE_REQUESTS:1

ALL_RAW: Cache-Control: max-age=0
Connection: keep-alive
Accept: text/html,application/xhtml+xml,application/xml;q=0.9,image/webp,*/*;q=0.8
Accept-Encoding: gzip, deflate, sdch
Accept-Language: es-ES,es;q=0.8
Cookie: ASP.NET_SessionId=gk0xxm552oxj0xm5k43ahg3z
Host: localhost:2662
User-Agent: Mozilla/5.0 (Windows NT 6.2) AppleWebKit/537.36 (KHTML, like Gecko) Chrome/45.0.2454.93 Safari/537.36
Upgrade-Insecure-Requests: 1

APPL_MD_PATH: 
APPL_PHYSICAL_PATH: C:\inetpub\wwwroot\sistematributario1.2\web_tributaria\web_tributaria\
AUTH_TYPE: NTLM
AUTH_USER: pcfran\Fran
AUTH_PASSWORD: 
LOGON_USER: pcfran\Fran
REMOTE_USER: pcfran\Fran
CERT_COOKIE: 
CERT_FLAGS: 
CERT_ISSUER: 
CERT_KEYSIZE: 
CERT_SECRETKEYSIZE: 
CERT_SERIALNUMBER: 
CERT_SERVER_ISSUER: 
CERT_SERVER_SUBJECT: 
CERT_SUBJECT: 
CONTENT_LENGTH: 0
CONTENT_TYPE: 
GATEWAY_INTERFACE: 
HTTPS: 
HTTPS_KEYSIZE: 
HTTPS_SECRETKEYSIZE: 
HTTPS_SERVER_ISSUER: 
HTTPS_SERVER_SUBJECT: 
INSTANCE_ID: 
INSTANCE_META_PATH: 
LOCAL_ADDR: 127.0.0.1
PATH_INFO: /paginas/webfrmconsulta_b.aspx
PATH_TRANSLATED: C:\inetpub\wwwroot\sistematributario1.2\web_tributaria\web_tributaria\paginas\webfrmconsulta_b.aspx
QUERY_STRING: 
REMOTE_ADDR: 127.0.0.1
REMOTE_HOST: 127.0.0.1
REMOTE_PORT: 
REQUEST_METHOD: GET
SCRIPT_NAME: /paginas/webfrmconsulta_b.aspx
SERVER_NAME: localhost
SERVER_PORT: 2662
SERVER_PORT_SECURE: 0
SERVER_PROTOCOL: HTTP/1.1
SERVER_SOFTWARE: 
URL: /paginas/webfrmconsulta_b.aspx
HTTP_CACHE_CONTROL: max-age=0
HTTP_CONNECTION: keep-alive
HTTP_ACCEPT: text/html,application/xhtml+xml,application/xml;q=0.9,image/webp,*/*;q=0.8
HTTP_ACCEPT_ENCODING: gzip, deflate, sdch
HTTP_ACCEPT_LANGUAGE: es-ES,es;q=0.8
HTTP_COOKIE: ASP.NET_SessionId=gk0xxm552oxj0xm5k43ahg3z
HTTP_HOST: localhost:2662
HTTP_USER_AGENT: Mozilla/5.0 (Windows NT 6.2) AppleWebKit/537.36 (KHTML, like Gecko) Chrome/45.0.2454.93 Safari/537.36
HTTP_UPGRADE_INSECURE_REQUESTS: 1
