Descripcion de ERROR:
Version: 2.0
EQUIPO: PCFRAN
------------------------------------------------------------------------------------------------------------------------------------------------------------------------------------
FECHA: 15/09/15 08:12:48
MENSAJE: Los datos del nivel de raíz no son válidos. Línea 1, posición 1.
SOURCE: System.Xml
TARGETSITE: Void Throw(System.Exception)
STACKTRACE (Ruta):    en System.Xml.XmlTextReaderImpl.Throw(Exception e)
   en System.Xml.XmlTextReaderImpl.Throw(String res, String arg)
   en System.Xml.XmlTextReaderImpl.ParseRootLevelWhitespace()
   en System.Xml.XmlTextReaderImpl.ParseDocumentContent()
   en System.Xml.XmlTextReaderImpl.Read()
   en System.Xml.XmlTextReader.Read()
   en System.Xml.XmlReader.MoveToContent()
   en System.Data.DataSet.ReadXml(XmlReader reader, Boolean denyResolving)
   en System.Data.DataSet.ReadXml(String fileName)
   en web_tributaria.webfrmconsulta_b.ObtenerDatosXML() en C:\inetpub\wwwroot\sistematributario1.2\web_tributaria\web_tributaria\paginas\webfrmconsulta_b.aspx.vb:línea 398




Descripcion de Variables WEB:
------------------------------------------------------------------------------------------------------------------------------------------------------------------------------------ALL_HTTP: HTTP_CACHE_CONTROL:no-cache
HTTP_CONNECTION:keep-alive
HTTP_CONTENT_LENGTH:1426
HTTP_CONTENT_TYPE:application/x-www-form-urlencoded; charset=UTF-8
HTTP_ACCEPT:*/*
HTTP_ACCEPT_ENCODING:gzip, deflate
HTTP_ACCEPT_LANGUAGE:es-ES,es;q=0.8
HTTP_COOKIE:ASP.NET_SessionId=t3kupj2yhecx4255rloa33v5
HTTP_HOST:localhost:2662
HTTP_REFERER:http://localhost:2662/paginas/webfrmconsulta_b.aspx
HTTP_USER_AGENT:Mozilla/5.0 (Windows NT 6.2) AppleWebKit/537.36 (KHTML, like Gecko) Chrome/45.0.2454.85 Safari/537.36
HTTP_ORIGIN:http://localhost:2662
HTTP_X_MICROSOFTAJAX:Delta=true

ALL_RAW: Cache-Control: no-cache
Connection: keep-alive
Content-Length: 1426
Content-Type: application/x-www-form-urlencoded; charset=UTF-8
Accept: */*
Accept-Encoding: gzip, deflate
Accept-Language: es-ES,es;q=0.8
Cookie: ASP.NET_SessionId=t3kupj2yhecx4255rloa33v5
Host: localhost:2662
Referer: http://localhost:2662/paginas/webfrmconsulta_b.aspx
User-Agent: Mozilla/5.0 (Windows NT 6.2) AppleWebKit/537.36 (KHTML, like Gecko) Chrome/45.0.2454.85 Safari/537.36
Origin: http://localhost:2662
X-MicrosoftAjax: Delta=true

APPL_MD_PATH: 
APPL_PHYSICAL_PATH: C:\inetpub\wwwroot\sistematributario1.2\web_tributaria\web_tributaria\
AUTH_TYPE: NTLM
AUTH_USER: pcfran\Fran
AUTH_PASSWORD: 
LOGON_USER: pcfran\Fran
REMOTE_USER: pcfran\Fran
CERT_COOKIE: 
CERT_FLAGS: 
CERT_ISSUER: 
CERT_KEYSIZE: 
CERT_SECRETKEYSIZE: 
CERT_SERIALNUMBER: 
CERT_SERVER_ISSUER: 
CERT_SERVER_SUBJECT: 
CERT_SUBJECT: 
CONTENT_LENGTH: 1426
CONTENT_TYPE: application/x-www-form-urlencoded; charset=UTF-8
GATEWAY_INTERFACE: 
HTTPS: 
HTTPS_KEYSIZE: 
HTTPS_SECRETKEYSIZE: 
HTTPS_SERVER_ISSUER: 
HTTPS_SERVER_SUBJECT: 
INSTANCE_ID: 
INSTANCE_META_PATH: 
LOCAL_ADDR: 127.0.0.1
PATH_INFO: /paginas/webfrmconsulta_b.aspx
PATH_TRANSLATED: C:\inetpub\wwwroot\sistematributario1.2\web_tributaria\web_tributaria\paginas\webfrmconsulta_b.aspx
QUERY_STRING: 
REMOTE_ADDR: 127.0.0.1
REMOTE_HOST: 127.0.0.1
REMOTE_PORT: 
REQUEST_METHOD: POST
SCRIPT_NAME: /paginas/webfrmconsulta_b.aspx
SERVER_NAME: localhost
SERVER_PORT: 2662
SERVER_PORT_SECURE: 0
SERVER_PROTOCOL: HTTP/1.1
SERVER_SOFTWARE: 
URL: /paginas/webfrmconsulta_b.aspx
HTTP_CACHE_CONTROL: no-cache
HTTP_CONNECTION: keep-alive
HTTP_CONTENT_LENGTH: 1426
HTTP_CONTENT_TYPE: application/x-www-form-urlencoded; charset=UTF-8
HTTP_ACCEPT: */*
HTTP_ACCEPT_ENCODING: gzip, deflate
HTTP_ACCEPT_LANGUAGE: es-ES,es;q=0.8
HTTP_COOKIE: ASP.NET_SessionId=t3kupj2yhecx4255rloa33v5
HTTP_HOST: localhost:2662
HTTP_REFERER: http://localhost:2662/paginas/webfrmconsulta_b.aspx
HTTP_USER_AGENT: Mozilla/5.0 (Windows NT 6.2) AppleWebKit/537.36 (KHTML, like Gecko) Chrome/45.0.2454.85 Safari/537.36
HTTP_ORIGIN: http://localhost:2662
HTTP_X_MICROSOFTAJAX: Delta=true
