Descripcion de ERROR:
------------------------------------------------------------------------------------------------------------------------------------------------------------------------------------
FECHA: 21/10/14 09:28:44
MENSAJE: ORA-12545: La conexión ha fallado porque el host destino o el objeto no existen

SOURCE: System.Data.OracleClient
TARGETSITE: Void Check(System.Data.OracleClient.OciErrorHandle, Int32)
STACKTRACE (Ruta):    en System.Data.ProviderBase.DbConnectionPool.GetConnection(DbConnection owningObject)
   en System.Data.ProviderBase.DbConnectionFactory.GetConnection(DbConnection owningConnection)
   en System.Data.ProviderBase.DbConnectionClosed.OpenConnection(DbConnection outerConnection, DbConnectionFactory connectionFactory)
   en System.Data.OracleClient.OracleConnection.Open()
   en ws_tish_rafam.ClsRafam.Conectar() en C:\inetpub\wwwroot\tish\desarrollos\Interface_ws_tish_rafam\ws_tish_rafam\ClsRafam.vb:línea 286
------------------------------------------------------------------------------------------------------------------------------------------------------------------------------------
