Descripcion de ERROR:
------------------------------------------------------------------------------------------------------------------------------------------------------------------------------------
FECHA: 22/10/14 03:45:58
MENSAJE: ORA-06550: línea 1, columna 33:
PLS-00302: el componente 'CREATE_USER_WEB' se debe declarar
ORA-06550: línea 1, columna 7:
PL/SQL: Statement ignored

SOURCE: System.Data.OracleClient
TARGETSITE: Void CheckError(System.Data.OracleClient.OciErrorHandle, Int32)
STACKTRACE (Ruta):    en System.Data.OracleClient.OracleConnection.CheckError(OciErrorHandle errorHandle, Int32 rc)
   en System.Data.OracleClient.OracleCommand.Execute(OciStatementHandle statementHandle, CommandBehavior behavior, Boolean needRowid, OciRowidDescriptor& rowidDescriptor, ArrayList& resultParameterOrdinals)
   en System.Data.OracleClient.OracleCommand.ExecuteNonQueryInternal(Boolean needRowid, OciRowidDescriptor& rowidDescriptor)
   en System.Data.OracleClient.OracleCommand.ExecuteNonQuery()
   en ws_tish_rafam.ClsRafam.CreateUserWeb() en C:\inetpub\wwwroot\tish\desarrollos\Interface_ws_tish_rafam\ws_tish_rafam\ClsRafam.vb:línea 502
------------------------------------------------------------------------------------------------------------------------------------------------------------------------------------
