Descripcion de ERROR:
------------------------------------------------------------------------------------------------------------------------------------------------------------------------------------
FECHA: 04/12/17 05:18:11
MENSAJE: ORA-06550: línea 1, columna 7:
PLS-00306: número o tipos de argumentos erróneos al llamar a 'COMERCIO_VINCULADO'
ORA-06550: línea 1, columna 7:
PL/SQL: Statement ignored

SOURCE: System.Data.OracleClient
TARGETSITE: Void CheckError(System.Data.OracleClient.OciErrorHandle, Int32)
STACKTRACE (Ruta):    en System.Data.OracleClient.OracleConnection.CheckError(OciErrorHandle errorHandle, Int32 rc)
   en System.Data.OracleClient.OracleCommand.Execute(OciStatementHandle statementHandle, CommandBehavior behavior, Boolean needRowid, OciRowidDescriptor& rowidDescriptor, ArrayList& resultParameterOrdinals)
   en System.Data.OracleClient.OracleCommand.ExecuteNonQueryInternal(Boolean needRowid, OciRowidDescriptor& rowidDescriptor)
   en System.Data.OracleClient.OracleCommand.ExecuteNonQuery()
   en ws_tish_rafam.ClsRafam.Comercio_Vinculado()
------------------------------------------------------------------------------------------------------------------------------------------------------------------------------------
