Descripcion de ERROR:
------------------------------------------------------------------------------------------------------------------------------------------------------------------------------------
FECHA: 22/03/18 04:14:43
MENSAJE: ORA-06502: PL/SQL: error : buffer de cadenas de caracteres demasiado pequeño numérico o de valor
ORA-06512: en "OWNER_RAFAM.GMDQWEB_TISH_PKG", línea 880
ORA-06502: PL/SQL: error : buffer de cadenas de caracteres demasiado pequeño numérico o de valor
ORA-06512: en línea 1

SOURCE: System.Data.OracleClient
TARGETSITE: Void CheckError(System.Data.OracleClient.OciErrorHandle, Int32)
STACKTRACE (Ruta):    en System.Data.OracleClient.OracleConnection.CheckError(OciErrorHandle errorHandle, Int32 rc)
   en System.Data.OracleClient.OracleCommand.Execute(OciStatementHandle statementHandle, CommandBehavior behavior, Boolean needRowid, OciRowidDescriptor& rowidDescriptor, ArrayList& resultParameterOrdinals)
   en System.Data.OracleClient.OracleCommand.ExecuteNonQueryInternal(Boolean needRowid, OciRowidDescriptor& rowidDescriptor)
   en System.Data.OracleClient.OracleCommand.ExecuteNonQuery()
   en ws_tish_rafam.ClsRafam.ExisteComercio() en C:\inetpub\wwwroot\Tish_Lincoln\Interface_ws_tish_rafam\ws_tish_rafam\ClsRafam.vb:línea 909
------------------------------------------------------------------------------------------------------------------------------------------------------------------------------------
