Descripcion de ERROR:
------------------------------------------------------------------------------------------------------------------------------------------------------------------------------------
FECHA: 23/03/18 03:40:14
MENSAJE: La propiedad ConnectionString no se ha inicializado.
SOURCE: System.Data.OracleClient
TARGETSITE: Void PermissionDemand()
STACKTRACE (Ruta):    en System.Data.OracleClient.OracleConnection.PermissionDemand()
   en System.Data.OracleClient.OracleConnectionFactory.PermissionDemand(DbConnection outerConnection)
   en System.Data.ProviderBase.DbConnectionClosed.OpenConnection(DbConnection outerConnection, DbConnectionFactory connectionFactory)
   en System.Data.OracleClient.OracleConnection.Open()
   en ws_tish_rafam.ClsRafam.Login_Admin_Rafam() en C:\inetpub\wwwroot\Tish_Lincoln\Interface_ws_tish_rafam\ws_tish_rafam\ClsRafam.vb:línea 1935
------------------------------------------------------------------------------------------------------------------------------------------------------------------------------------
