FECHA: 27/11/09 03:50:30|IP: 127.0.0.1|HOST: 127.0.0.1|PUERTO: 

-- DATOS INGRESADOS --
NRO. CUENTA:        93350
TIPO CUENTA:        Inmueble
GRUPO COMPROBANTE1: 20
NRO. COMPROBANTE1:  002021131
NRO. VERIFICADOR1:  0
GRUPO COMPROBANTE2: 90
NRO. COMPROBANTE2:  002078082
NRO. VERIFICADOR2:  0
