FECHA: 10/11/09 03:39:54|IP: 127.0.0.1|HOST: 127.0.0.1|PUERTO: 

-- DATOS INGRESADOS --
NRO. CUENTA:        1
TIPO CUENTA:        Comercio
GRUPO COMPROBANTE1: 98
NRO. COMPROBANTE1:  000000001
NRO. VERIFICADOR1:  1
GRUPO COMPROBANTE2: 1
NRO. COMPROBANTE2:  000000001
NRO. VERIFICADOR2:  1
