FECHA: 17/11/09 10:56:41|IP: 127.0.0.1|HOST: 127.0.0.1|PUERTO: 

-- DATOS INGRESADOS --
NRO. CUENTA:        0
TIPO CUENTA:        Inmueble
GRUPO COMPROBANTE1: 1
NRO. COMPROBANTE1:  000000001
NRO. VERIFICADOR1:  1
GRUPO COMPROBANTE2: 1
NRO. COMPROBANTE2:  000000001
NRO. VERIFICADOR2:  1
