FECHA: 17/11/09 02:00:42|IP: 127.0.0.1|HOST: 127.0.0.1|PUERTO: 

-- DATOS INGRESADOS --
NRO. CUENTA:        368
TIPO CUENTA:        Inmueble
GRUPO COMPROBANTE1: 55
NRO. COMPROBANTE1:  000000083
NRO. VERIFICADOR1:  23
GRUPO COMPROBANTE2: 0
NRO. COMPROBANTE2:  000000000
NRO. VERIFICADOR2:  0
